lecture_04
…
abbreviated_sizes

[1] p    c    p    r    <NA>
Levels: m r p c

Data from US General Social Survey (part of forcats package):

gss_cat

# A tibble: 21,483 × 9
    year marital         age race  rincome        partyid    relig denom tvhours
   <int> <fct>         <int> <fct> <fct>          <fct>      <fct> <fct>   <int>
 1  2000 Never married    26 White $8000 to 9999  Ind,near … Prot… Sout…      12
 2  2000 Divorced         48 White $8000 to 9999  Not str r… Prot… Bapt…      NA
 3  2000 Widowed          67 White Not applicable Independe… Prot… No d…       2
 4  2000 Never married    39 White Not applicable Ind,near … Orth… Not …       4
 5  2000 Divorced         25 White Not applicable Not str d… None  Not …       1
 6  2000 Married          25 White $20000 - 24999 Strong de… Prot… Sout…      NA
 7  2000 Never married    36 White $25000 or more Not str r… Chri… Not …       3
 8  2000 Divorced         44 White $7000 to 7999  Ind,near … Prot… Luth…      NA
 9  2000 Married          44 White $25000 or more Not str d… Prot… Other       0
10  2000 Married          47 White $25000 or more Strong re… Prot… Sout…       3
# ℹ 21,473 more rows
…
Subset of Protestants only:

protestant_denom <- 
  filter(gss_cat, relig == "Protestant") |>
  pull(denom)
class(protestant_denom)

[1] "factor"

fct_count(protestant_denom)

# A tibble: 30 × 2
   f                        n
   <fct>                <int>
 1 No answer               22
 2 Don't know              41
 3 No denomination       1224
 4 Other                 2534
 5 Episcopal              397
 6 Presbyterian-dk wh     244
 7 Presbyterian, merged    67
 8 Other presbyterian      47
 9 United pres ch in us   110
10 Presbyterian c in us   104
# ℹ 20 more rows
…
 [1] "Other"                "Southern baptist"     "Baptist-dk which"    
 [4] "No denomination"      "United methodist"     "Episcopal"           
 [7] "Lutheran-dk which"    "Presbyterian-dk wh"   "Methodist-dk which"  
[10] "Am baptist asso"      "Other baptists"       "Lutheran-mo synod"   
[13] "Am lutheran"          "Am bapt ch in usa"    "Evangelical luth"    
[16] "United pres ch in us" "Presbyterian c in us" "Afr meth episcopal"  
[19] "Nat bapt conv of am"  "Wi evan luth synod"   "Luth ch in america"  
[22] "Presbyterian, merged" "Other presbyterian"   "Don't know"          
[25] "Nat bapt conv usa"    "Other methodist"      "Afr meth ep zion"    
[28] "Other lutheran"       "No answer"            "Not applicable"      

fct_count(denom_descending)

# A tibble: 30 × 2
   f                      n
   <fct>              <int>
 1 Other               2534
 2 Southern baptist    1536
 3 Baptist-dk which    1457
 4 No denomination     1224
 5 United methodist    1067
 6 Episcopal            397
 7 Lutheran-dk which    267
 8 Presbyterian-dk wh   244
 9 Methodist-dk which   239
10 Am baptist asso      237
# ℹ 20 more rows
…
pelts
pelts_long
pelts_long <- slice_sample(pelts_long, n = nrow(pelts_long))

ggplot(pelts_long, aes(x=year, y=thousands, color=species)) +
  geom_path() +
  labs(title = "Path")
ggplot(pelts_long, aes(x=year, y=thousands, color=species)) +
  geom_line() +
  labs(title = "Line")
# use geom_line() when the data is of chronological order and have progression in time

# A tibble: 91 × 3
    hare  lynx  year
   <dbl> <dbl> <int>
 1  19.6 30.1   1845
 2  19.6 45.2   1846
 3  19.6 49.2   1847
 4  12.0 39.5   1848
 5  28.0 21.2   1849
 6  58    8.42  1850
 7  74.6  5.56  1851
 8  75.1  5.08  1852
 9  88.5 10.2   1853
10  61.3 19.6   1854
# ℹ 81 more rows

# A tibble: 182 × 3
    year species thousands
   <int> <chr>       <dbl>
 1  1845 hare         19.6
 2  1845 lynx         30.1
 3  1846 hare         19.6
 4  1846 lynx         45.2
 5  1847 hare         19.6
 6  1847 lynx         49.2
 7  1848 hare         12.0
 8  1848 lynx         39.5
 9  1849 hare         28.0
10  1849 lynx         21.2
# ℹ 172 more rows
…
