lecture_2
…
trade <- read_csv("asean_trade_by_country_and_mode_of_transport.csv")

Rows: 120 Columns: 4
── Column specification ────────────────────────────────────────────────────────
Delimiter: ","
chr (2): country, mode
dbl (2): year, million_usd

ℹ Use `spec()` to retrieve the full column specification for this data.
ℹ Specify the column types or set `show_col_types = FALSE` to quiet this message.

trade

# A tibble: 120 × 4
    year country           mode                     million_usd
   <dbl> <chr>             <chr>                          <dbl>
 1  2021 Brunei Darussalam Air                         761.    
 2  2021 Brunei Darussalam Water                     17690.    
 3  2021 Brunei Darussalam Land                        234.    
 4  2021 Brunei Darussalam Not elsewhere classified      0.300 
 5  2021 Brunei Darussalam Unknown                       0.0606
 6  2021 Brunei Darussalam Total                     18686.    
 7  2021 Cambodia          Air                        5494.    
 8  2021 Cambodia          Water                     25954.    
 9  2021 Cambodia          Land                      10992.    
10  2021 Cambodia          Not elsewhere classified      0     
# ℹ 110 more rows
…
