Lab05
…
Please note that some countries may be included in multiple categories. For all other countries, the label should be an empty string.

countries_filtered <- countries_filtered |>
  mutate(label = case_when(
    rank(desc(gdp_per_cap)) <= 10 ~ code,
    rank(gdp_per_cap) <= 10 ~ code,
    rank(desc(life_exp)) <= 10 ~ code,
    rank(life_exp) <= 10 ~ code,
    rank(desc(pop)) <= 10 ~ code,
    TRUE ~ ""
  ))

countries_filtered

# A tibble: 198 × 8
   country              code  gdp_per_cap life_exp    pop code_2 continent label
   <chr>                <chr>       <dbl>    <dbl>  <dbl> <chr>  <chr>     <chr>
 1 Aruba                ABW        30318.     76.2 1.06e5 ABW    Americas  ""   
 2 Afghanistan          AFG          559.     63.6 3.78e7 AFG    Asia      "AFG"
 3 Angola               AGO         2666.     62.4 3.24e7 AGO    Africa    ""   
 4 Albania              ALB         4543.     79.3 2.85e6 ALB    Europe    ""   
 5 United Arab Emirates ARE        43785.     79.7 9.21e6 ARE    Asia      ""   
 6 Argentina            ARG        12716.     77.3 4.49e7 ARG    Americas  ""   
 7 Armenia              ARM         4562.     75.4 2.82e6 ARM    Asia      ""   
 8 Antigua and Barbuda  ATG        18358.     78.7 9.21e4 ATG    Americas  ""   
 9 Australia            AUS        59001.     82.9 2.53e7 AUS    Oceania   ""   
10 Austria              AUT        46616.     81.9 8.88e6 AUT    Europe    ""   
# ℹ 188 more rows
…
